[

  {
    "key" : "diane-von-furstenberg",
    "name" : "Diane von Furstenberg",
    "categories" : [
      {
        "key": "dresses",
        "name": "Dresses",
        "measurement_type": "chest"
      },

      {
        "key": "shirts",
        "name": "Shirts",
        "measurement_type": "chest"
      },
      {
        "key": "jeans",
        "name": "Jeans",
        "measurement_type": "low_hip"
      },
      {
        "key": "shorts",
        "name": "Shorts",
        "measurement_type": "waist"
      }
    ],
    "measurements" : [
      {
        "key" : "chest",
        "sizes" :{
          "P-L" : [
            {
              "id" : "P",
              "inches" : {
                "min": 32.5,
                "max": 33.5
              }
            },
            {
              "id" : "S",
              "inches" : {
                "min": 34.5,
                "max": 35.5
              }
            },

            {
              "id" : "M",
              "inches" : {
                "min": 36.5,
                "max": 37.5
              }
            },

            {
              "id" : "L",
              "inches" : {
                "min": 39.5,
                "max": 40.5
              }
            }
          ],
          "0-14" : [
            {
              "id" : "0",
              "inches" : {
                "min": 32.5,
                "max": 32.5

              }
            },
            {
              "id" : "2",
              "inches" : {
                "min": 33.5,
                "max": 33.5

              }
            },
            {
              "id" : "4",
              "inches" : {
                "min": 34.5,
                "max": 34.5

              }
            },
            {
              "id" : "6",
              "inches" : {
                "min": 35.5,
                "max": 35.5

              }
            },
            {
              "id" : "8",
              "inches" : {
                "min": 36.5,
                "max": 36.5

              }
            },
            {
              "id" : "10",
              "inches" : {
                "min": 37.5,
                "max": 37.5

              }
            },
            {
              "id" : "12",
              "inches" : {
                "min": 39,
                "max": 39

              }
            },
            {
              "id" : "14",
              "inches" : {
                "min": 40.5,
                "max": 40.5

              }
            }

          ]
        },
        "sizeThreshold":  {
          "inches" : 1
        }
      },
      {
        "key" : "waist",
        "sizes" : {
          "P-L" : [
            {
              "id" : "P",
              "inches" : {
                "min": 25,
                "max": 26
              }
            },
            {
              "id" : "S",
              "inches" : {
                "min": 27,
                "max": 28
              }
            },

            {
              "id" : "M",
              "inches" : {
                "min": 29,
                "max": 30
              }
            },

            {
              "id" : "L",
              "inches" : {
                "min": 31.5,
                "max": 33
              }
            }
          ],
          "0-14" : [
            {
              "id" : "0",
              "inches" : {
                "min": 25,
                "max": 25

              }
            },
            {
              "id" : "2",
              "inches" : {
                "min": 26,
                "max": 26

              }
            },
            {
              "id" : "4",
              "inches" : {
                "min": 27,
                "max": 27

              }
            },
            {
              "id" : "6",
              "inches" : {
                "min": 28,
                "max": 28

              }
            },
            {
              "id" : "8",
              "inches" : {
                "min": 29,
                "max": 29

              }
            },
            {
              "id" : "10",
              "inches" : {
                "min": 30,
                "max": 30

              }
            },
            {
              "id" : "12",
              "inches" : {
                "min": 31.5,
                "max": 31.5

              }
            },
            {
              "id" : "14",
              "inches" : {
                "min": 33,
                "max": 33

              }
            }

          ]
        },
        "sizeThreshold":  {
          "inches" : 1
        }
      },
      {
        "key" : "low_hip",
        "sizes" : {
          "P-L" : [
            {
              "id" : "P",
              "inches" : {
                "min": 35,
                "max": 36
              }
            },
            {
              "id" : "S",
              "inches" : {
                "min": 37,
                "max": 38
              }
            },

            {
              "id" : "M",
              "inches" : {
                "min": 39,
                "max": 40
              }
            },

            {
              "id" : "L",
              "inches" : {
                "min": 41.5,
                "max": 43
              }
            }
          ],
          "0-14" : [
            {
              "id" : "0",
              "inches" : {
                "min": 35,
                "max": 35

              }
            },
            {
              "id" : "2",
              "inches" : {
                "min": 36,
                "max": 36

              }
            },
            {
              "id" : "4",
              "inches" : {
                "min": 37,
                "max": 37

              }
            },
            {
              "id" : "6",
              "inches" : {
                "min": 38,
                "max": 38

              }
            },
            {
              "id" : "8",
              "inches" : {
                "min": 39,
                "max": 39

              }
            },
            {
              "id" : "10",
              "inches" : {
                "min": 40,
                "max": 40

              }
            },
            {
              "id" : "12",
              "inches" : {
                "min": 41.5,
                "max": 41.5

              }
            },
            {
              "id" : "14",
              "inches" : {
                "min": 43,
                "max": 43

              }
            }

          ]
        },
        "sizeThreshold":  {
          "inches" : 1.5
        }
      }

    ]
  },
  {
    "key": "black-diamond-men",
    "name" : "Black Diamond Men",
    "categories" : [
      {
        "key" : "shirts",
        "name": "Shirts",
        "measurement_type": "chest"
      },
      {
        "key" : "Trousers",
        "name": "Trousers",
        "measurement_type": "waist"
      }
    ],
    "measurements" : [
      {
        "key" : "chest",
        "sizes" :{
          "S-XL" : [
            {
              "id" : "S",
              "inches" : {
                "min": 36.5,
                "max": 38.5
              }
            },
            {
              "id" : "M",
              "inches" : {
                "min": 39.5,
                "max": 41.5
              }
            },
            {
              "id" : "L",
              "inches" : {
                "min": 42,
                "max": 44.5
              }
            },
            {
              "id" : "XL",
              "inches" : {
                "min": 45,
                "max": 47.5
              }
            }
          ]
        },
        "sizeThreshold":  {
          "inches" : 0.5
        }
      },
      {
        "key" : "neck",
        "sizes" :{
          "S-XL" : [
            {
              "id" : "S",
              "inches" : {
                "min": 14.5,
                "max": 14.5
              }
            },
            {
              "id" : "M",
              "inches" : {
                "min": 15.5,
                "max": 15.5
              }
            },
            {
              "id" : "L",
              "inches" : {
                "min": 16.5,
                "max": 16.5
              }
            },
            {
              "id" : "XL",
              "inches" : {
                "min": 17.5,
                "max": 17.5
              }
            }
          ]
        },
        "sizeThreshold":  {
          "inches" : 0.5
        }
      },
      {
        "key" : "sleeve",
        "sizes" :{
          "S-XL" : [
            {
              "id" : "S",
              "inches" : {
                "min": 33,
                "max": 33
              }
            },
            {
              "id" : "M",
              "inches" : {
                "min": 34,
                "max": 34
              }
            },
            {
              "id" : "L",
              "inches" : {
                "min": 35,
                "max": 35
              }
            },
            {
              "id" : "XL",
              "inches" : {
                "min": 36,
                "max": 36
              }
            }
          ]
        },
        "sizeThreshold":  {
          "inches" : 0.5
        }
      },
      {
        "key" : "waist",
        "sizes" :{
          "S-XL" : [
            {
              "id" : "S",
              "inches" : {
                "min": 29,
                "max": 31.5
              }
            },
            {
              "id" : "M",
              "inches" : {
                "min": 32,
                "max": 34.5
              }
            },
            {
              "id" : "L",
              "inches" : {
                "min": 35,
                "max": 37.5
              }
            },
            {
              "id" : "XL",
              "inches" : {
                "min": 38,
                "max": 40.5
              }
            }
          ]
        },
        "sizeThreshold":  {
          "inches" : 1
        }
      },
      {
        "key" : "hip",
        "sizes" :{
          "S-XL" : [
            {
              "id" : "S",
              "inches" : {
                "min": 34,
                "max": 36.5
              }
            },
            {
              "id" : "M",
              "inches" : {
                "min": 37,
                "max": 39.5
              }
            },
            {
              "id" : "L",
              "inches" : {
                "min": 40,
                "max": 42.5
              }
            },
            {
              "id" : "XL",
              "inches" : {
                "min": 43,
                "max": 45.5
              }
            }
          ]
        },
        "sizeThreshold":  {
          "inches" : 1.25
        }
      },
      {
        "key" : "inseam",
        "sizes" :{
          "S-XL" : [
            {
              "id" : "S",
              "inches" : {
                "min": 30.5,
                "max": 30.5
              }
            },
            {
              "id" : "M",
              "inches" : {
                "min": 31,
                "max": 31
              }
            },
            {
              "id" : "L",
              "inches" : {
                "min": 32,
                "max": 32
              }
            },
            {
              "id" : "XL",
              "inches" : {
                "min": 33,
                "max": 33
              }
            }
          ]
        },
        "sizeThreshold":  {
          "inches" : 0.5
        }
      }

    ]
  }
]